…
    ## Rows: 822 Columns: 9
    ## ── Column specification ────────────────────────────────────────────────────────
    ## Delimiter: ","
    ## dbl  (8): prez_gop, gov_gop, sen_gop, rep_gop, prez_dem, gov_dem, sen_dem, r...
    ## date (1): mon
    ## 
    ## ℹ Use `spec()` to retrieve the full column specification for this data.
    ## ℹ Specify the column types or set `show_col_types = FALSE` to quiet this message.

``` r
pols_df
```

    ## # A tibble: 822 × 12
    ##    year  month day   prez_gop gov_gop sen_gop rep_gop prez_dem gov_dem sen_dem
    ##    <chr> <chr> <chr>    <dbl>   <dbl>   <dbl>   <dbl>    <dbl>   <dbl>   <dbl>
    ##  1 1947  01    15           0      23      51     253        1      23      45
    ##  2 1947  02    15           0      23      51     253        1      23      45
    ##  3 1947  03    15           0      23      51     253        1      23      45
    ##  4 1947  04    15           0      23      51     253        1      23      45
    ##  5 1947  05    15           0      23      51     253        1      23      45
    ##  6 1947  06    15           0      23      51     253        1      23      45
    ##  7 1947  07    15           0      23      51     253        1      23      45
    ##  8 1947  08    15           0      23      51     253        1      23      45
    ##  9 1947  09    15           0      23      51     253        1      23      45
    ## 10 1947  10    15           0      23      51     253        1      23      45
    ## # ℹ 812 more rows
    ## # ℹ 2 more variables: rep_dem <dbl>, month_name <chr>
